#AAVS3 Antenna locations in format suitable for aavs-calibration toolset
# based on https://github.com/ska-low/aavs_uv/blob/main/config/aavs3/antenna_locations.txt
SB22-11 13.52 8.316 0.061
SB22-3 9.418 8.187 0.041
SB22-1 13.006 10.596 0.062
SB22-4 9.358 6.183 0.041
SB22-5 11.572 6.335 0.035
SB22-7 15.533 5.379 0.065
SB22-2 11.516 8.481 0.039
SB22-10 14.963 10.288 0.062
SB21-9 8.819 4.277 0.049
SB21-4 4.899 5.964 0.036
SB21-10 7.247 7.458 0.038
SB21-8 6.951 5.462 0.041
SB21-6 5.968 3.545 0.03
SB21-11 6.997 9.423 0.049
SB21-3 2.799 7.943 0.022
SB21-1 4.482 9.957 0.043
SB22-9 15.462 7.823 0.064
SB22-8 17.282 7.014 0.086
SB22-6 13.638 6.055 0.051
SB24-7 3.574 14.664 0.026
SB24-9 7.055 16.577 0.069
SB24-2 1.661 15.937 0.045
SB24-10 5.009 18.119 0.054
SB24-6 5.104 13.082 0.043
SB10-11 -10.529 -6.256 -0.048
SB10-1 -12.578 -8.373 -0.059
SB10-2 -14.518 -8.023 -0.069
SB10-7 -11.122 -12.77 -0.065
SB10-4 -14.026 -10.416 -0.069
SB21-7 7.766 2.545 0.039
SB21-5 4.011 3.75 0.021
SB21-2 4.99 8.052 0.03
SB24-1 0.954 18.279 0.045
SB24-8 5.219 15.771 0.055
SB24-11 3.265 17.171 0.052
SB24-5 3.49 11.709 0.038
SB24-3 0.318 14.456 0.029
SB24-4 2.065 13.244 0.03
SB23-4 8.143 12.221 0.047
SB23-3 6.269 11.344 0.046
SB11-10 -5.407 -10.648 -0.034
SB11-9 -4.314 -12.366 -0.042
SB10-6 -12.068 -10.608 -0.087
SB10-9 -8.014 -9.849 -0.076
SB10-10 -10.518 -8.321 -0.068
SB10-5 -13.12 -12.77 -0.084
SB10-3 -15.98 -9.918 -0.075
SB10-8 -10.021 -10.425 -0.03
SB23-10 10.724 15.052 0.061
SB23-8 12.069 12.899 0.066
SB23-7 11.005 10.632 0.052
SB23-9 14.057 12.724 0.066
SB23-6 10.084 12.737 0.06
SB23-5 9.008 10.229 0.04
SB23-2 6.871 14.108 0.063
SB23-1 8.742 14.732 0.07
SB11-3 -7.851 -14.359 -0.047
SB11-7 -4.146 -17.615 -0.054
SB11-8 -6.019 -13.565 -0.064
SB11-5 -8.05 -16.763 -0.086
SB11-2 -9.161 -12.466 -0.022
SB11-4 -9.765 -14.834 -0.085
SB11-1 -7.204 -11.755 -0.056
SB11-6 -6.157 -16.115 -0.061
SB3-2 -13.805 10.036 -0.048
SB3-7 -12.488 6.202 -0.045
SB3-9 -11.226 4.52 -0.043
SB3-1 -13.969 11.994 -0.038
SB3-11 -11.392 9.148 -0.008
SB3-8 -12.874 3.284 -0.059
SB3-3 -15.761 8.485 -0.049
SB3-6 -14.182 4.87 -0.055
SB4-9 -4.72 7.314 0.023
SB4-5 -7.296 3.362 -0.031
SB4-8 -3.201 4.175 0.013
SB4-7 -5.34 5.297 0.022
SB4-10 -3.42 9.074 0.004
SB4-11 -5.277 9.829 0.014
SB4-3 -9.416 5.326 -0.01
SB4-6 -5.257 3.315 0.006
SB2-9 -7.346 12.181 -0.012
SB2-6 -9.505 11.87 0.016
SB2-7 -9.347 9.855 -0.026
SB2-8 -7.281 10.057 0.005
SB2-5 -11.765 11.16 -0.034
SB3-10 -10.633 7.248 -0.027
SB3-5 -15.141 6.619 -0.044
SB3-4 -13.346 8.048 -0.031
SB4-1 -6.686 7.818 0.014
SB4-4 -7.432 5.617 -0.001
SB4-2 -8.676 7.754 -0.008
SB18-4 -1.679 -1.659 -0.007
SB18-6 1.068 -1.242 0.004
SB18-3 -1.2 0.21 0.011
SB18-10 1.901 2.785 0.012
SB18-1 0.07 2.11 0.005
SB1-10 -2.864 17.596 0.011
SB1-3 -4.752 14.09 0.004
SB2-11 -6.414 16.033 0.004
SB2-10 -7.052 14.166 0.004
SB2-4 -11.727 13.137 -0.03
SB2-2 -11.363 15.119 -0.02
SB2-1 -8.91 15.798 -0.002
SB2-3 -9.408 13.884 -0.019
SB18-7 2.138 -4.034 -0.011
SB18-2 -2.249 1.909 0.002
SB18-5 0.38 -3.077 -0.005
SB18-8 3.234 -1.836 0.008
SB18-9 2.64 0.173 0.009
SB19-9 11.512 0.175 0.046
SB19-8 9.153 0.91 0.035
SB19-4 6.119 -2.492 0.002
SB1-8 -1.715 15.36 0.019
SB1-2 -3.975 15.948 0.016
SB1-4 -5.231 12.066 0.018
SB1-9 -0.511 16.966 0.037
SB1-6 -2.658 13.574 0.028
SB1-5 -3.25 11.478 0.023
SB1-7 -0.746 12.648 0.019
SB1-1 -5.422 17.79 0.008
SB19-11 11.221 4.324 0.048
SB19-7 10.082 -1.202 0.038
SB19-10 10.418 2.472 0.033
SB19-6 8.304 -2.119 0.019
SB19-1 3.928 1.689 0.014
SB19-5 7.423 -0.245 0.023
SB19-2 5.973 1.098 0.025
SB19-3 4.967 -0.814 0.018
SB12-4 -0.991 -15.159 -0.035
SB12-1 0.254 -13.543 -0.02
SB12-3 -2.799 -13.921 -0.055
SB12-9 2.219 -18.256 -0.038
SB12-5 -4.4 -15.163 -0.067
SB12-11 1.158 -11.584 -0.007
SB12-8 -1.788 -18.775 -0.06
SB12-2 -1.456 -12.279 -0.038
SB13-5 3.421 -16.705 -0.024
SB14-9 13.926 -10.924 0.046
SB14-2 11.561 -10.092 0.035
SB14-11 13.585 -8.977 0.049
SB14-5 9.46 -12.817 0.017
SB14-1 11.018 -8.104 0.03
SB14-6 11.721 -12.065 0.032
SB14-4 9.458 -10.77 0.022
SB12-10 1.098 -16.112 -0.003
SB12-6 -2.489 -16.524 -0.063
SB12-7 -0.246 -17.572 -0.06
SB9-2 -7.533 -3.93 -0.044
SB9-6 -6.016 -8.737 -0.019
SB9-7 -3.657 -9.009 -0.041
SB9-9 -3.618 -4.691 0.009
SB9-8 -4.004 -6.986 -0.036
SB15-8 3.369 -10.246 -0.015
SB15-3 -2.053 -6.478 -0.043
SB15-6 -0.352 -10.277 -0.037
SB15-4 -1.461 -8.565 -0.044
SB14-3 9.021 -8.71 0.016
SB14-10 15.962 -9.385 0.064
SB14-7 11.56 -14.046 0.025
SB14-8 13.923 -12.941 0.042
SB9-4 -8.355 -7.862 -0.045
SB9-11 -4.125 -2.585 -0.039
SB9-10 -1.767 -3.703 -0.044
SB9-1 -5.624 -4.722 -0.041
SB9-3 -7.918 -5.849 -0.049
SB9-5 -6.159 -6.743 -0.044
SB13-10 7.204 -13.118 -0.005
SB13-9 9.121 -14.781 0.008
SB16-6 5.044 -8.531 -0.005
SB16-8 8.112 -6.62 0.025
SB15-5 -2.754 -10.787 -0.086
SB15-10 1.636 -6.05 -0.022
SB15-7 2.979 -12.494 -0.006
SB15-2 0.346 -7.585 -0.035
SB15-9 1.692 -9.182 -0.04
SB15-1 -0.476 -5.26 -0.02
SB13-1 5.258 -10.896 -0.001
SB13-2 5.036 -12.991 -0.014
SB13-11 7.312 -11.067 0.017
SB13-7 6.708 -15.068 -0.01
SB13-6 5.917 -16.89 -0.016
SB13-3 2.193 -14.437 -0.03
SB13-4 4.402 -14.952 -0.032
SB13-8 8.472 -16.675 -0.003
SB16-11 10.393 -3.617 0.038
SB16-3 4.101 -5.788 0.0
SB16-7 7.011 -8.864 0.022
SB16-1 6.487 -4.454 0.012
SB16-10 8.516 -4.312 0.031
SB16-4 6.092 -6.523 0.009
SB16-2 4.194 -3.794 -0.001
SB16-9 10.046 -6.195 0.044
SB20-1 15.188 3.072 0.073
SB20-9 16.851 2.003 0.088
SB20-7 17.421 -1.749 0.089
SB20-6 16.081 -0.246 0.085
SB20-5 13.402 -0.911 0.065
SB20-4 14.455 0.988 0.069
SB20-10 17.287 4.452 0.086
SB20-8 18.31 0.65 0.085
SB16-5 3.209 -7.648 -0.002
SB6-3 -18.029 2.62 -0.074
SB6-5 -17.661 -1.288 -0.079
SB6-9 -12.563 0.399 -0.069
SB6-7 -15.359 -0.313 -0.089
SB6-2 -17.543 6.596 -0.063
SB6-4 -19.002 0.178 -0.08
SB6-6 -16.804 1.028 -0.076
SB17-1 14.961 -2.247 0.097
SB17-10 18.521 -3.392 0.1
SB17-4 11.893 -5.281 0.071
SB17-8 17.132 -5.604 0.087
SB17-5 12.915 -7.085 0.069
SB17-2 12.05 -2.438 0.064
SB20-2 13.296 3.887 0.06
SB20-3 12.592 1.918 0.058
SB6-8 -13.602 -1.404 -0.082
SB6-1 -16.729 4.748 -0.059
SB8-8 -10.097 -4.269 -0.057
SB8-5 -16.444 -7.391 -0.089
SB8-7 -12.685 -6.158 -0.073
SB8-4 -16.445 -4.89 -0.073
SB8-9 -12.334 -4.081 -0.069
SB8-10 -11.592 -2.17 -0.062
SB7-11 -6.892 1.519 -0.03
SB7-6 -7.748 -1.027 -0.036
SB7-1 -9.467 2.895 -0.023
SB7-9 -5.594 0.014 -0.022
SB17-6 14.66 -5.655 0.107
SB17-9 16.174 -3.845 0.094
SB17-7 15.472 -7.476 0.081
SB17-3 13.562 -3.959 0.085
SB8-6 -14.632 -5.685 -0.072
SB8-2 -16.098 -2.511 -0.085
SB6-11 -15.621 3.081 -0.062
SB8-3 -18.142 -3.786 -0.082
SB8-1 -14.322 -3.465 -0.075
SB5-6 1.202 4.619 0.0
SB5-1 -1.528 10.526 0.009
SB5-3 -2.898 6.097 0.027
SB6-10 -14.261 1.598 -0.111
SB7-7 -6.135 -2.224 -0.036
SB7-5 -9.184 -2.526 -0.059
SB7-4 -10.446 -0.556 -0.047
SB7-2 -11.145 1.872 -0.041
SB7-3 -8.906 0.739 -0.034
SB7-10 -4.202 1.567 -0.005
SB7-8 -3.475 -0.726 -0.011
SB5-4 -1.208 3.816 0.003
SB5-11 0.799 11.433 0.015
SB5-9 -0.078 9.092 0.009
SB5-8 0.896 7.236 0.028
SB5-2 -1.809 7.831 0.02
SB5-10 2.076 9.836 0.02
SB5-7 2.912 5.74 0.015
SB5-5 -0.561 5.84 0.016
