# AAVS3 instrument config
# INPUT   ANTENNA   POL     DELTA   FLAG
0	0	X	0	0		# SB22-11
1	0	Y	0	0
2	1	X	0	0		# SB22-3
3	1	Y	0	0
4	2	X	0	0		# SB22-1
5	2	Y	0	0
6	3	X	0	0		# SB22-4
7	3	Y	0	0
8	4	X	0	0		# SB22-5
9	4	Y	0	0
10	5	X	0	0		# SB22-7
11	5	Y	0	0
12	6	X	0	0		# SB22-2
13	6	Y	0	0
14	7	X	0	0		# SB22-10
15	7	Y	0	0
16	8	X	0	0		# SB21-9
17	8	Y	0	0
18	9	X	0	0		# SB21-4
19	9	Y	0	0
20	10	X	0	0		# SB21-10
21	10	Y	0	0
22	11	X	0	0		# SB21-8
23	11	Y	0	0
24	12	X	0	0		# SB21-6
25	12	Y	0	0
26	13	X	0	0		# SB21-11
27	13	Y	0	0
28	14	X	0	0		# SB21-3
29	14	Y	0	0
30	15	X	0	0		# SB21-1
31	15	Y	0	0
32	16	X	0	0		# SB22-9
33	16	Y	0	0
34	17	X	0	0		# SB22-8
35	17	Y	0	0
36	18	X	0	0		# SB22-6
37	18	Y	0	0
38	19	X	0	0		# SB24-7
39	19	Y	0	0
40	20	X	0	0		# SB24-9
41	20	Y	0	0
42	21	X	0	0		# SB24-2
43	21	Y	0	0
44	22	X	0	0		# SB24-10
45	22	Y	0	0
46	23	X	0	0		# SB24-6
47	23	Y	0	0
48	24	X	0	0		# SB10-11
49	24	Y	0	0
50	25	X	0	0		# SB10-1
51	25	Y	0	0
52	26	X	0	0		# SB10-2
53	26	Y	0	0
54	27	X	0	0		# SB10-7
55	27	Y	0	0
56	28	X	0	0		# SB10-4
57	28	Y	0	0
58	29	X	0	0		# SB21-7
59	29	Y	0	0
60	30	X	0	0		# SB21-5
61	30	Y	0	0
62	31	X	0	0		# SB21-2
63	31	Y	0	0
64	32	X	0	0		# SB24-1
65	32	Y	0	0
66	33	X	0	0		# SB24-8
67	33	Y	0	0
68	34	X	0	0		# SB24-11
69	34	Y	0	0
70	35	X	0	0		# SB24-5
71	35	Y	0	0
72	36	X	0	0		# SB24-3
73	36	Y	0	0
74	37	X	0	0		# SB24-4
75	37	Y	0	0
76	38	X	0	0		# SB23-4
77	38	Y	0	0
78	39	X	0	0		# SB23-3
79	39	Y	0	0
80	40	X	0	0		# SB11-10
81	40	Y	0	0
82	41	X	0	0		# SB11-9
83	41	Y	0	0
84	42	X	0	0		# SB10-6
85	42	Y	0	0
86	43	X	0	0		# SB10-9
87	43	Y	0	0
88	44	X	0	0		# SB10-10
89	44	Y	0	0
90	45	X	0	0		# SB10-5
91	45	Y	0	0
92	46	X	0	0		# SB10-3
93	46	Y	0	0
94	47	X	0	0		# SB10-8
95	47	Y	0	0
96	48	X	0	0		# SB23-10
97	48	Y	0	0
98	49	X	0	0		# SB23-8
99	49	Y	0	0
100	50	X	0	0		# SB23-7
101	50	Y	0	0
102	51	X	0	0		# SB23-9
103	51	Y	0	0
104	52	X	0	0		# SB23-6
105	52	Y	0	0
106	53	X	0	0		# SB23-5
107	53	Y	0	0
108	54	X	0	0		# SB23-2
109	54	Y	0	0
110	55	X	0	0		# SB23-1
111	55	Y	0	0
112	56	X	0	0		# SB11-3
113	56	Y	0	0
114	57	X	0	0		# SB11-7
115	57	Y	0	0
116	58	X	0	0		# SB11-8
117	58	Y	0	0
118	59	X	0	0		# SB11-5
119	59	Y	0	0
120	60	X	0	0		# SB11-2
121	60	Y	0	0
122	61	X	0	0		# SB11-4
123	61	Y	0	0
124	62	X	0	0		# SB11-1
125	62	Y	0	0
126	63	X	0	0		# SB11-6
127	63	Y	0	0
128	64	X	0	0		# SB3-2
129	64	Y	0	0
130	65	X	0	0		# SB3-7
131	65	Y	0	0
132	66	X	0	0		# SB3-9
133	66	Y	0	0
134	67	X	0	0		# SB3-1
135	67	Y	0	0
136	68	X	0	0		# SB3-11
137	68	Y	0	0
138	69	X	0	0		# SB3-8
139	69	Y	0	0
140	70	X	0	0		# SB3-3
141	70	Y	0	0
142	71	X	0	0		# SB3-6
143	71	Y	0	0
144	72	X	0	0		# SB4-9
145	72	Y	0	0
146	73	X	0	0		# SB4-5
147	73	Y	0	0
148	74	X	0	0		# SB4-8
149	74	Y	0	0
150	75	X	0	0		# SB4-7
151	75	Y	0	0
152	76	X	0	0		# SB4-10
153	76	Y	0	0
154	77	X	0	0		# SB4-11
155	77	Y	0	0
156	78	X	0	0		# SB4-3
157	78	Y	0	0
158	79	X	0	0		# SB4-6
159	79	Y	0	0
160	80	X	0	0		# SB2-9
161	80	Y	0	0
162	81	X	0	0		# SB2-6
163	81	Y	0	0
164	82	X	0	0		# SB2-7
165	82	Y	0	0
166	83	X	0	0		# SB2-8
167	83	Y	0	0
168	84	X	0	0		# SB2-5
169	84	Y	0	0
170	85	X	0	0		# SB3-10
171	85	Y	0	0
172	86	X	0	0		# SB3-5
173	86	Y	0	0
174	87	X	0	0		# SB3-4
175	87	Y	0	0
176	88	X	0	0		# SB4-1
177	88	Y	0	0
178	89	X	0	0		# SB4-4
179	89	Y	0	0
180	90	X	0	0		# SB4-2
181	90	Y	0	0
182	91	X	0	0		# SB18-4
183	91	Y	0	0
184	92	X	0	0		# SB18-6
185	92	Y	0	0
186	93	X	0	0		# SB18-3
187	93	Y	0	0
188	94	X	0	0		# SB18-10
189	94	Y	0	0
190	95	X	0	0		# SB18-1
191	95	Y	0	0
192	96	X	0	0		# SB1-10
193	96	Y	0	0
194	97	X	0	0		# SB1-3
195	97	Y	0	0
196	98	X	0	0		# SB2-11
197	98	Y	0	0
198	99	X	0	0		# SB2-10
199	99	Y	0	0
200	100	X	0	0		# SB2-4
201	100	Y	0	0
202	101	X	0	0		# SB2-2
203	101	Y	0	0
204	102	X	0	0		# SB2-1
205	102	Y	0	0
206	103	X	0	0		# SB2-3
207	103	Y	0	0
208	104	X	0	0		# SB18-7
209	104	Y	0	0
210	105	X	0	0		# SB18-2
211	105	Y	0	0
212	106	X	0	0		# SB18-5
213	106	Y	0	0
214	107	X	0	0		# SB18-8
215	107	Y	0	0
216	108	X	0	0		# SB18-9
217	108	Y	0	0
218	109	X	0	0		# SB19-9
219	109	Y	0	0
220	110	X	0	0		# SB19-8
221	110	Y	0	0
222	111	X	0	0		# SB19-4
223	111	Y	0	0
224	112	X	0	0		# SB1-8
225	112	Y	0	0
226	113	X	0	0		# SB1-2
227	113	Y	0	0
228	114	X	0	0		# SB1-4
229	114	Y	0	0
230	115	X	0	0		# SB1-9
231	115	Y	0	0
232	116	X	0	0		# SB1-6
233	116	Y	0	0
234	117	X	0	0		# SB1-5
235	117	Y	0	0
236	118	X	0	0		# SB1-7
237	118	Y	0	0
238	119	X	0	0		# SB1-1
239	119	Y	0	0
240	120	X	0	0		# SB19-11
241	120	Y	0	0
242	121	X	0	0		# SB19-7
243	121	Y	0	0
244	122	X	0	0		# SB19-10
245	122	Y	0	0
246	123	X	0	0		# SB19-6
247	123	Y	0	0
248	124	X	0	0		# SB19-1
249	124	Y	0	0
250	125	X	0	0		# SB19-5
251	125	Y	0	0
252	126	X	0	0		# SB19-2
253	126	Y	0	0
254	127	X	0	0		# SB19-3
255	127	Y	0	0
256	128	X	0	0		# SB12-4
257	128	Y	0	0
258	129	X	0	0		# SB12-1
259	129	Y	0	0
260	130	X	0	0		# SB12-3
261	130	Y	0	0
262	131	X	0	0		# SB12-9
263	131	Y	0	0
264	132	X	0	0		# SB12-5
265	132	Y	0	0
266	133	X	0	0		# SB12-11
267	133	Y	0	0
268	134	X	0	0		# SB12-8
269	134	Y	0	0
270	135	X	0	0		# SB12-2
271	135	Y	0	0
272	136	X	0	0		# SB13-5
273	136	Y	0	0
274	137	X	0	0		# SB14-9
275	137	Y	0	0
276	138	X	0	0		# SB14-2
277	138	Y	0	0
278	139	X	0	0		# SB14-11
279	139	Y	0	0
280	140	X	0	0		# SB14-5
281	140	Y	0	0
282	141	X	0	0		# SB14-1
283	141	Y	0	0
284	142	X	0	0		# SB14-6
285	142	Y	0	0
286	143	X	0	0		# SB14-4
287	143	Y	0	0
288	144	X	0	0		# SB12-10
289	144	Y	0	0
290	145	X	0	0		# SB12-6
291	145	Y	0	0
292	146	X	0	0		# SB12-7
293	146	Y	0	0
294	147	X	0	0		# SB9-2
295	147	Y	0	0
296	148	X	0	0		# SB9-6
297	148	Y	0	0
298	149	X	0	0		# SB9-7
299	149	Y	0	0
300	150	X	0	0		# SB9-9
301	150	Y	0	0
302	151	X	0	0		# SB9-8
303	151	Y	0	0
304	152	X	0	0		# SB15-8
305	152	Y	0	0
306	153	X	0	0		# SB15-3
307	153	Y	0	0
308	154	X	0	0		# SB15-6
309	154	Y	0	0
310	155	X	0	0		# SB15-4
311	155	Y	0	0
312	156	X	0	0		# SB14-3
313	156	Y	0	0
314	157	X	0	0		# SB14-10
315	157	Y	0	0
316	158	X	0	0		# SB14-7
317	158	Y	0	0
318	159	X	0	0		# SB14-8
319	159	Y	0	0
320	160	X	0	0		# SB9-4
321	160	Y	0	0
322	161	X	0	0		# SB9-11
323	161	Y	0	0
324	162	X	0	0		# SB9-10
325	162	Y	0	0
326	163	X	0	0		# SB9-1
327	163	Y	0	0
328	164	X	0	0		# SB9-3
329	164	Y	0	0
330	165	X	0	0		# SB9-5
331	165	Y	0	0
332	166	X	0	0		# SB13-10
333	166	Y	0	0
334	167	X	0	0		# SB13-9
335	167	Y	0	0
336	168	X	0	0		# SB16-6
337	168	Y	0	0
338	169	X	0	0		# SB16-8
339	169	Y	0	0
340	170	X	0	0		# SB15-5 - polarisations swapped (rotated on 2023-11-02 - changed by MS)
341	170	Y	0	0
342	171	X	0	0		# SB15-10
343	171	Y	0	0
344	172	X	0	0		# SB15-7
345	172	Y	0	0
346	173	X	0	0		# SB15-2
347	173	Y	0	0
348	174	X	0	0		# SB15-9
349	174	Y	0	0
350	175	X	0	0		# SB15-1
351	175	Y	0	0
352	176	X	0	0		# SB13-1
353	176	Y	0	0
354	177	X	0	0		# SB13-2
355	177	Y	0	0
356	178	X	0	0		# SB13-11
357	178	Y	0	0
358	179	X	0	0		# SB13-7
359	179	Y	0	0
360	180	X	0	0		# SB13-6
361	180	Y	0	0
362	181	X	0	0		# SB13-3
363	181	Y	0	0
364	182	X	0	0		# SB13-4
365	182	Y	0	0
366	183	X	0	0		# SB13-8
367	183	Y	0	0
368	184	X	0	0		# SB16-11
369	184	Y	0	0
370	185	X	0	0		# SB16-3
371	185	Y	0	0
372	186	X	0	0		# SB16-7
373	186	Y	0	0
374	187	X	0	0		# SB16-1
375	187	Y	0	0
376	188	X	0	0		# SB16-10
377	188	Y	0	0
378	189	X	0	0		# SB16-4
379	189	Y	0	0
380	190	X	0	0		# SB16-2
381	190	Y	0	0
382	191	X	0	0		# SB16-9
383	191	Y	0	0
384	192	X	0	0		# SB20-1
385	192	Y	0	0
386	193	X	0	0		# SB20-9
387	193	Y	0	0
388	194	X	0	0		# SB20-7
389	194	Y	0	0
390	195	X	0	0		# SB20-6
391	195	Y	0	0
392	196	X	0	0		# SB20-5
393	196	Y	0	0
394	197	X	0	0		# SB20-4
395	197	Y	0	0
396	198	X	0	0		# SB20-10
397	198	Y	0	0
398	199	X	0	0		# SB20-8
399	199	Y	0	0
400	200	X	0	0		# SB16-5
401	200	Y	0	0
402	201	X	0	0		# SB6-3
403	201	Y	0	0
404	202	X	0	0		# SB6-5
405	202	Y	0	0
406	203	X	0	0		# SB6-9
407	203	Y	0	0
408	204	X	0	0		# SB6-7
409	204	Y	0	0
410	205	X	0	0		# SB6-2
411	205	Y	0	0
412	206	X	0	0		# SB6-4
413	206	Y	0	0
414	207	X	0	0		# SB6-6
415	207	Y	0	0
416	208	X	0	0		# SB17-1
417	208	Y	0	0
418	209	X	0	0		# SB17-10
419	209	Y	0	0
420	210	X	0	0		# SB17-4
421	210	Y	0	0
422	211	X	0	0		# SB17-8
423	211	Y	0	0
424	212	X	0	0		# SB17-5
425	212	Y	0	0
426	213	X	0	0		# SB17-2
427	213	Y	0	0
428	214	X	0	0		# SB20-2
429	214	Y	0	0
430	215	X	0	0		# SB20-3
431	215	Y	0	0
432	216	X	0	0		# SB6-8
433	216	Y	0	0
434	217	X	0	0		# SB6-1
435	217	Y	0	0
436	218	X	0	0		# SB8-8
437	218	Y	0	0
438	219	X	0	0		# SB8-5
439	219	Y	0	0
440	220	X	0	0		# SB8-7
441	220	Y	0	0
442	221	X	0	0		# SB8-4
443	221	Y	0	0
444	222	X	0	0		# SB8-9
445	222	Y	0	0
446	223	X	0	0		# SB8-10
447	223	Y	0	0
448	224	X	0	0		# SB7-11
449	224	Y	0	0
450	225	X	0	0		# SB7-6
451	225	Y	0	0
452	226	X	0	0		# SB7-1
453	226	Y	0	0
454	227	X	0	0		# SB7-9
455	227	Y	0	0
456	228	X	0	0		# SB17-6
457	228	Y	0	0
458	229	X	0	0		# SB17-9
459	229	Y	0	0
460	230	X	0	0		# SB17-7
461	230	Y	0	0
462	231	X	0	0		# SB17-3
463	231	Y	0	0
464	232	X	0	0		# SB8-6
465	232	Y	0	0
466	233	X	0	0		# SB8-2
467	233	Y	0	0
468	234	X	0	0		# SB6-11
469	234	Y	0	0
470	235	X	0	0		# SB8-3
471	235	Y	0	0
472	236	X	0	0		# SB8-1
473	236	Y	0	0
474	237	X	0	0		# SB5-6
475	237	Y	0	0
476	238	X	0	0		# SB5-1
477	238	Y	0	0
478	239	X	0	0		# SB5-3
479	239	Y	0	0
480	240	X	0	0		# SB6-10
481	240	Y	0	0
482	241	X	0	0		# SB7-7
483	241	Y	0	0
484	242	X	0	0		# SB7-5
485	242	Y	0	0
486	243	X	0	0		# SB7-4
487	243	Y	0	0
488	244	X	0	0		# SB7-2
489	244	Y	0	0
490	245	X	0	0		# SB7-3
491	245	Y	0	0
492	246	X	0	0		# SB7-10
493	246	Y	0	0
494	247	X	0	0		# SB7-8
495	247	Y	0	0
496	248	X	0	0		# SB5-4
497	248	Y	0	0
498	249	X	0	0		# SB5-11
499	249	Y	0	0
500	250	X	0	0		# SB5-9
501	250	Y	0	0
502	251	X	0	0		# SB5-8
503	251	Y	0	0
504	252	X	0	0		# SB5-2
505	252	Y	0	0
506	253	X	0	0		# SB5-10
507	253	Y	0	0
508	254	X	0	0		# SB5-7
509	254	Y	0	0
510	255	X	0	0		# SB5-5
511	255	Y	0	0
