6.437 4.975 -0.026
-0.29 -0.256 0.016
6.804 1.32 -0.001
5.331 1.075 -0.013
-0.363 3.256 -0.010
1.86 9.002 -0.037
0.923 6.104 -0.031
1.772 4.249 -0.012
4.3 3.282 -0.029
4.264 5.952 -0.048
5.668 6.391 -0.029
2.832 6.377 -0.036
1.122 2.964 -0.006
0.465 1.694 -0.010
2.546 1.643 -0.001
3.669 4.665 -0.034
-0.521 8.213 -0.031
-1.115 6.463 -0.028
-2.806 0.997 0.015
-2.829 3.659 -0.006
-8.592 3.065 0.026
-9.235 4.437 0.006
-8.371 6.292 0.002
-6.389 6.799 -0.010
-4.006 5.484 -0.030
-2.164 5.559 -0.022
-2.633 8.285 -0.033
-5.292 8.106 -0.002
-7.067 5.394 -0.004
-6.682 2.538 0.032
-5.817 0.328 0.003
-4.416 2.63 0.006
6.986 -1.068 0.006
6.598 -2.775 0.001
4.95 -6.78 0.030
5.296 -5.349 0.024
-0.957 -6.503 0.005
0.833 -2.608 0.031
0.996 -5.502 0.033
0.093 -7.806 0.046
4.958 -1.847 -0.003
4.423 -0.144 -0.001
2.204 -0.654 0.008
2.398 -2.458 0.011
2.734 -8.869 0.042
2.593 -7.404 0.035
2.38 -5.841 0.019
2.953 -4.096 0.010
14.604 8.192 -0.067
14.729 6.197 -0.060
15.694 4.799 -0.055
12.157 2.232 -0.011
7.79 4.892 -0.019
9.892 7.151 -0.038
8.311 6.642 -0.031
9.094 5.38 -0.026
13.773 4.843 -0.004
12.801 8.294 -0.058
13.79 10.863 -0.078
12.009 11.961 -0.083
10.252 3.567 -0.012
11.289 4.599 -0.019
11.243 6.708 -0.035
11.333 9.036 -0.052
11.502 13.196 -0.089
10.458 12.212 -0.087
8.796 9.25 -0.051
10.001 10.685 -0.064
3.316 8.612 -0.044
3.081 10.214 -0.050
5.744 14.64 -0.071
4.09 14.279 -0.067
8.635 12.256 -0.070
8.545 13.838 -0.075
6.93 16.071 -0.081
6.184 10.003 -0.057
6.002 12.159 -0.069
4.794 10.948 -0.063
5.082 8.318 -0.040
6.744 7.393 -0.047
-2.033 10.655 -0.043
-3.168 12.108 -0.053
-4.758 16.072 -0.058
-5.508 12.198 -0.041
-11.239 11.255 -0.029
-8.19 8.083 -0.018
-9.917 8.893 -0.003
-9.272 10.281 -0.002
-5.397 10.693 -0.003
-4.481 9.394 -0.032
-6.532 9.288 -0.027
-7.541 10.401 -0.025
-8.343 11.682 -0.027
-9.742 12.932 -0.028
-7.917 14.996 -0.047
-6.767 13.842 -0.042
-9.462 7.281 -0.012
-11.908 3.791 0.019
-10.96 6.078 -0.013
-10.827 9.947 -0.017
-17.345 3.104 0.031
-16.081 6.977 0.012
-14.881 9.472 -0.012
-14.287 6.431 0.004
-12.238 12.349 -0.028
-13.345 11.344 -0.024
-12.502 9.779 -0.016
-12.13 8.091 -0.009
-15.854 5.159 0.010
-14.912 3.975 0.002
-15.692 2.723 0.024
-13.072 4.618 0.015
-9.253 0.897 0.026
-11.219 -2.175 0.039
-10.998 1.059 0.028
-10.528 2.941 0.015
-16.12 -3.157 0.041
-16.958 -0.291 0.004
-17.011 1.29 0.027
-15.487 1.304 0.032
-12.963 2.788 0.015
-13.654 0.576 0.024
-12.378 -0.773 0.032
-15.151 -4.601 0.058
-15.256 -0.404 0.039
-14.105 -1.391 0.031
-15.911 -1.749 0.053
-14.205 -3.402 0.053
-8.348 -5.613 0.100
-8.909 -7.645 0.008
-11.725 -10.768 0.083
-10.808 -9.328 0.067
-16.353 -5.907 0.065
-14.17 -5.84 0.065
-14.817 -7.644 0.065
-14.229 -8.962 0.078
-10.658 -6.94 0.071
-11.922 -5.501 0.062
-10.025 -3.676 0.055
-13.023 -4.381 0.057
-12.365 -12.505 0.009
-13.914 -10.645 0.081
-12.584 -8.743 0.068
-12.903 -7.197 0.074
-1.431 -10.002 0.061
-3.093 -11.075 0.078
-2.489 -9.087 0.059
-4.494 -9.103 0.067
-10.249 -11.693 0.095
-10.161 -13.664 0.010
-8.993 -12.888 0.094
-8.812 -10.788 0.083
-4.841 -11.454 0.078
-5.489 -12.836 0.086
-6.413 -15.192 0.105
-7.788 -14.449 0.106
-9.269 -9.281 0.076
-5.992 -8.978 0.080
-7.465 -9.757 0.086
-6.793 -11.872 0.082
4.653 -16.851 0.101
2.901 -14.38 0.083
2.622 -15.922 0.112
2.864 -17.295 0.116
-4.154 -16.401 0.099
-4.144 -13.986 0.086
-3.448 -12.712 0.084
-2.284 -14.023 0.085
1.261 -17.549 0.010
0.503 -15.756 0.103
1.409 -13.889 0.085
0.022 -13.472 0.075
-2.778 -15.669 0.096
-1.437 -17.063 0.010
1.894 -11.231 0.052
0.297 -11.446 0.060
10.081 -12.436 0.006
9.683 -14.644 0.074
8.451 -12.479 0.064
9.461 -10.845 0.056
3.621 -11.93 0.053
4.5 -8.239 0.042
5.156 -9.882 0.053
4.946 -11.443 0.065
8.395 -8.347 0.033
6.099 -8.25 0.040
7.845 -9.898 0.047
7.755 -11.293 0.062
4.015 -13.262 0.073
5.711 -15.634 0.084
7.455 -14.797 0.081
6.771 -12.75 0.071
16.202 -6.317 0.017
14.161 -5.077 0.017
14.233 -7.227 0.025
12.316 -11.039 0.042
7.301 -5.672 0.003
9.345 -2.736 0.019
8.201 -4.62 0.019
9.913 -7.819 0.041
13.605 -9.468 0.004
12.548 -7.184 0.030
12.56 -4.078 0.018
11.145 -2.181 0.013
9.675 -9.42 0.039
11.105 -9.682 0.044
10.95 -6.491 0.031
11.046 -3.639 0.011
16.448 -3.671 -0.005
17.517 -1.114 -0.010
16.81 0.961 -0.034
16.658 3.036 -0.037
8.131 1.038 -0.008
9.155 -0.467 0.006
10.64 -0.779 0.011
11.507 1.024 0.003
14.096 -0.643 -0.006
15.053 -1.837 -0.013
14.706 -3.576 0.003
12.66 -1.845 0.013
10.136 1.94 -0.005
13.759 3.242 -0.029
13.901 0.835 0.001
12.608 0.097 0.017
